{
  "color": {
    "background": {
      "base": {
        "comment": "The base background of the application",
        "value": "hsl(218, 48%, 22%)",
        "original": {
          "comment": "The base background of the application",
          "value": "#1D3052"
        },
        "name": "color-background-base",
        "attributes": {
          "category": "color",
          "type": "background",
          "item": "base"
        },
        "path": [
          "color",
          "background",
          "base"
        ]
      },
      "anchor": {
        "comment": "An important/cornerstone feature (e.g. main nav)",
        "value": "hsl(218, 49%, 19%)",
        "original": {
          "comment": "An important/cornerstone feature (e.g. main nav)",
          "value": "#192B49"
        },
        "name": "color-background-anchor",
        "attributes": {
          "category": "color",
          "type": "background",
          "item": "anchor"
        },
        "path": [
          "color",
          "background",
          "anchor"
        ]
      },
      "feature": {
        "comment": "A background that rests on top of color-background-base (e.g. a campaign card)",
        "value": "hsl(218, 48%, 26%)",
        "original": {
          "comment": "A background that rests on top of color-background-base (e.g. a campaign card)",
          "value": "#233A63"
        },
        "name": "color-background-feature",
        "attributes": {
          "category": "color",
          "type": "background",
          "item": "feature"
        },
        "path": [
          "color",
          "background",
          "feature"
        ]
      },
      "component": {
        "base": {
          "default": {
            "comment": "The primary background for key components (e.g. button)",
            "value": "hsl(207, 90%, 42%)",
            "original": {
              "comment": "The primary background for key components (e.g. button)",
              "value": "#0B75CB"
            },
            "name": "color-background-component-base-default",
            "attributes": {
              "category": "color",
              "type": "background",
              "item": "component",
              "subitem": "base",
              "state": "default"
            },
            "path": [
              "color",
              "background",
              "component",
              "base",
              "default"
            ]
          },
          "hover": {
            "comment": "The hover state for key components",
            "value": "hsl(207, 92%, 39%)",
            "original": {
              "comment": "The hover state for key components",
              "value": "#086DBE"
            },
            "name": "color-background-component-base-hover",
            "attributes": {
              "category": "color",
              "type": "background",
              "item": "component",
              "subitem": "base",
              "state": "hover"
            },
            "path": [
              "color",
              "background",
              "component",
              "base",
              "hover"
            ]
          },
          "active": {
            "comment": "The active state for key components",
            "value": "hsl(207, 92%, 39%)",
            "original": {
              "comment": "The active state for key components",
              "value": "#086DBE"
            },
            "name": "color-background-component-base-active",
            "attributes": {
              "category": "color",
              "type": "background",
              "item": "component",
              "subitem": "base",
              "state": "active"
            },
            "path": [
              "color",
              "background",
              "component",
              "base",
              "active"
            ]
          },
          "disabled": {
            "comment": "The disabled state for key components",
            "value": "hsl(206, 47%, 65%)",
            "original": {
              "comment": "The disabled state for key components",
              "value": "#7CABD0"
            },
            "name": "color-background-component-base-disabled",
            "attributes": {
              "category": "color",
              "type": "background",
              "item": "component",
              "subitem": "base",
              "state": "disabled"
            },
            "path": [
              "color",
              "background",
              "component",
              "base",
              "disabled"
            ]
          }
        },
        "cta": {
          "default": {
            "comment": "The background for key call-to-action components",
            "value": "hsl(44, 100%, 64%)",
            "original": {
              "comment": "The background for key call-to-action components",
              "value": "#FFCF46"
            },
            "name": "color-background-component-cta-default",
            "attributes": {
              "category": "color",
              "type": "background",
              "item": "component",
              "subitem": "cta",
              "state": "default"
            },
            "path": [
              "color",
              "background",
              "component",
              "cta",
              "default"
            ]
          },
          "hover": {
            "value": "hsl(44, 100%, 74%)",
            "original": {
              "value": "#FFDC79"
            },
            "name": "color-background-component-cta-hover",
            "attributes": {
              "category": "color",
              "type": "background",
              "item": "component",
              "subitem": "cta",
              "state": "hover"
            },
            "path": [
              "color",
              "background",
              "component",
              "cta",
              "hover"
            ]
          },
          "active": {
            "value": "hsl(44, 100%, 74%)",
            "original": {
              "value": "#FFDC79"
            },
            "name": "color-background-component-cta-active",
            "attributes": {
              "category": "color",
              "type": "background",
              "item": "component",
              "subitem": "cta",
              "state": "active"
            },
            "path": [
              "color",
              "background",
              "component",
              "cta",
              "active"
            ]
          },
          "disabled": {
            "value": "hsl(44, 100%, 74%)",
            "original": {
              "value": "#FFDC79"
            },
            "name": "color-background-component-cta-disabled",
            "attributes": {
              "category": "color",
              "type": "background",
              "item": "component",
              "subitem": "cta",
              "state": "disabled"
            },
            "path": [
              "color",
              "background",
              "component",
              "cta",
              "disabled"
            ]
          }
        },
        "destruction": {
          "default": {
            "value": "hsl(1, 100%, 41%)",
            "original": {
              "value": "#D00300"
            },
            "name": "color-background-component-destruction-default",
            "attributes": {
              "category": "color",
              "type": "background",
              "item": "component",
              "subitem": "destruction",
              "state": "default"
            },
            "path": [
              "color",
              "background",
              "component",
              "destruction",
              "default"
            ]
          },
          "hover": {
            "value": "hsl(1, 100%, 61%)",
            "original": {
              "value": "#FF3A37"
            },
            "name": "color-background-component-destruction-hover",
            "attributes": {
              "category": "color",
              "type": "background",
              "item": "component",
              "subitem": "destruction",
              "state": "hover"
            },
            "path": [
              "color",
              "background",
              "component",
              "destruction",
              "hover"
            ]
          },
          "active": {
            "value": "hsl(1, 68%, 73%)",
            "original": {
              "value": "#E98B8A"
            },
            "name": "color-background-component-destruction-active",
            "attributes": {
              "category": "color",
              "type": "background",
              "item": "component",
              "subitem": "destruction",
              "state": "active"
            },
            "path": [
              "color",
              "background",
              "component",
              "destruction",
              "active"
            ]
          },
          "disabled": {
            "value": "hsl(1, 68%, 73%)",
            "original": {
              "value": "#E98B8A"
            },
            "name": "color-background-component-destruction-disabled",
            "attributes": {
              "category": "color",
              "type": "background",
              "item": "component",
              "subitem": "destruction",
              "state": "disabled"
            },
            "path": [
              "color",
              "background",
              "component",
              "destruction",
              "disabled"
            ]
          }
        },
        "creation": {
          "default": {
            "value": "hsl(125, 52%, 44%)",
            "original": {
              "value": "#36A93F"
            },
            "name": "color-background-component-creation-default",
            "attributes": {
              "category": "color",
              "type": "background",
              "item": "component",
              "subitem": "creation",
              "state": "default"
            },
            "path": [
              "color",
              "background",
              "component",
              "creation",
              "default"
            ]
          },
          "hover": {
            "value": "hsl(125, 52%, 54%)",
            "original": {
              "value": "#4CC656"
            },
            "name": "color-background-component-creation-hover",
            "attributes": {
              "category": "color",
              "type": "background",
              "item": "component",
              "subitem": "creation",
              "state": "hover"
            },
            "path": [
              "color",
              "background",
              "component",
              "creation",
              "hover"
            ]
          },
          "active": {
            "value": "hsl(124, 52%, 79%)",
            "original": {
              "value": "#ADE5B1"
            },
            "name": "color-background-component-creation-active",
            "attributes": {
              "category": "color",
              "type": "background",
              "item": "component",
              "subitem": "creation",
              "state": "active"
            },
            "path": [
              "color",
              "background",
              "component",
              "creation",
              "active"
            ]
          },
          "disabled": {
            "value": "hsl(124, 52%, 79%)",
            "original": {
              "value": "#ADE5B1"
            },
            "name": "color-background-component-creation-disabled",
            "attributes": {
              "category": "color",
              "type": "background",
              "item": "component",
              "subitem": "creation",
              "state": "disabled"
            },
            "path": [
              "color",
              "background",
              "component",
              "creation",
              "disabled"
            ]
          }
        }
      }
    },
    "border": {
      "primary": {
        "default": {
          "comment": "A primary accent color",
          "value": "hsl(207, 90%, 42%)",
          "original": {
            "comment": "A primary accent color",
            "value": "#0B75CB"
          },
          "name": "color-border-primary-default",
          "attributes": {
            "category": "color",
            "type": "border",
            "item": "primary",
            "subitem": "default"
          },
          "path": [
            "color",
            "border",
            "primary",
            "default"
          ]
        },
        "hover": {
          "comment": "The hover state for key components",
          "value": "hsl(207, 92%, 39%)",
          "original": {
            "comment": "The hover state for key components",
            "value": "#086DBE"
          },
          "name": "color-border-primary-hover",
          "attributes": {
            "category": "color",
            "type": "border",
            "item": "primary",
            "subitem": "hover"
          },
          "path": [
            "color",
            "border",
            "primary",
            "hover"
          ]
        },
        "active": {
          "comment": "The active state for key components",
          "value": "hsl(207, 92%, 39%)",
          "original": {
            "comment": "The active state for key components",
            "value": "#086DBE"
          },
          "name": "color-border-primary-active",
          "attributes": {
            "category": "color",
            "type": "border",
            "item": "primary",
            "subitem": "active"
          },
          "path": [
            "color",
            "border",
            "primary",
            "active"
          ]
        },
        "disabled": {
          "comment": "The disabled state for key components",
          "value": "hsl(206, 47%, 65%)",
          "original": {
            "comment": "The disabled state for key components",
            "value": "#7CABD0"
          },
          "name": "color-border-primary-disabled",
          "attributes": {
            "category": "color",
            "type": "border",
            "item": "primary",
            "subitem": "disabled"
          },
          "path": [
            "color",
            "border",
            "primary",
            "disabled"
          ]
        }
      },
      "cta": {
        "default": {
          "comment": "The background for key call-to-action components",
          "value": "hsl(44, 100%, 64%)",
          "original": {
            "comment": "The background for key call-to-action components",
            "value": "#FFCF46"
          },
          "name": "color-border-cta-default",
          "attributes": {
            "category": "color",
            "type": "border",
            "item": "cta",
            "subitem": "default"
          },
          "path": [
            "color",
            "border",
            "cta",
            "default"
          ]
        },
        "hover": {
          "value": "hsl(44, 100%, 74%)",
          "original": {
            "value": "#FFDC79"
          },
          "name": "color-border-cta-hover",
          "attributes": {
            "category": "color",
            "type": "border",
            "item": "cta",
            "subitem": "hover"
          },
          "path": [
            "color",
            "border",
            "cta",
            "hover"
          ]
        },
        "active": {
          "value": "hsl(44, 100%, 74%)",
          "original": {
            "value": "#FFDC79"
          },
          "name": "color-border-cta-active",
          "attributes": {
            "category": "color",
            "type": "border",
            "item": "cta",
            "subitem": "active"
          },
          "path": [
            "color",
            "border",
            "cta",
            "active"
          ]
        },
        "disabled": {
          "value": "hsl(44, 100%, 74%)",
          "original": {
            "value": "#FFDC79"
          },
          "name": "color-border-cta-disabled",
          "attributes": {
            "category": "color",
            "type": "border",
            "item": "cta",
            "subitem": "disabled"
          },
          "path": [
            "color",
            "border",
            "cta",
            "disabled"
          ]
        }
      },
      "destruction": {
        "default": {
          "value": "hsl(1, 100%, 41%)",
          "original": {
            "value": "#D00300"
          },
          "name": "color-border-destruction-default",
          "attributes": {
            "category": "color",
            "type": "border",
            "item": "destruction",
            "subitem": "default"
          },
          "path": [
            "color",
            "border",
            "destruction",
            "default"
          ]
        },
        "hover": {
          "value": "hsl(1, 100%, 61%)",
          "original": {
            "value": "#FF3A37"
          },
          "name": "color-border-destruction-hover",
          "attributes": {
            "category": "color",
            "type": "border",
            "item": "destruction",
            "subitem": "hover"
          },
          "path": [
            "color",
            "border",
            "destruction",
            "hover"
          ]
        },
        "active": {
          "value": "hsl(1, 68%, 73%)",
          "original": {
            "value": "#E98B8A"
          },
          "name": "color-border-destruction-active",
          "attributes": {
            "category": "color",
            "type": "border",
            "item": "destruction",
            "subitem": "active"
          },
          "path": [
            "color",
            "border",
            "destruction",
            "active"
          ]
        },
        "disabled": {
          "value": "hsl(1, 68%, 73%)",
          "original": {
            "value": "#E98B8A"
          },
          "name": "color-border-destruction-disabled",
          "attributes": {
            "category": "color",
            "type": "border",
            "item": "destruction",
            "subitem": "disabled"
          },
          "path": [
            "color",
            "border",
            "destruction",
            "disabled"
          ]
        }
      },
      "creation": {
        "default": {
          "value": "hsl(125, 52%, 44%)",
          "original": {
            "value": "#36A93F"
          },
          "name": "color-border-creation-default",
          "attributes": {
            "category": "color",
            "type": "border",
            "item": "creation",
            "subitem": "default"
          },
          "path": [
            "color",
            "border",
            "creation",
            "default"
          ]
        },
        "hover": {
          "value": "hsl(125, 52%, 54%)",
          "original": {
            "value": "#4CC656"
          },
          "name": "color-border-creation-hover",
          "attributes": {
            "category": "color",
            "type": "border",
            "item": "creation",
            "subitem": "hover"
          },
          "path": [
            "color",
            "border",
            "creation",
            "hover"
          ]
        },
        "active": {
          "value": "hsl(124, 52%, 79%)",
          "original": {
            "value": "#ADE5B1"
          },
          "name": "color-border-creation-active",
          "attributes": {
            "category": "color",
            "type": "border",
            "item": "creation",
            "subitem": "active"
          },
          "path": [
            "color",
            "border",
            "creation",
            "active"
          ]
        },
        "disabled": {
          "value": "hsl(124, 52%, 79%)",
          "original": {
            "value": "#ADE5B1"
          },
          "name": "color-border-creation-disabled",
          "attributes": {
            "category": "color",
            "type": "border",
            "item": "creation",
            "subitem": "disabled"
          },
          "path": [
            "color",
            "border",
            "creation",
            "disabled"
          ]
        }
      }
    },
    "text": {
      "base": {
        "default": {
          "comment": "The primary color to go on color-background-base",
          "value": "hsl(0, 0%, 100%)",
          "original": {
            "comment": "The primary color to go on color-background-base",
            "value": "#FFFFFF"
          },
          "name": "color-text-base-default",
          "attributes": {
            "category": "color",
            "type": "text",
            "item": "base",
            "subitem": "default"
          },
          "path": [
            "color",
            "text",
            "base",
            "default"
          ]
        },
        "subtle": {
          "comment": "A color to go on color-background-base that commands less attention than color-text-base",
          "value": "hsl(217, 54%, 73%)",
          "original": {
            "comment": "A color to go on color-background-base that commands less attention than color-text-base",
            "value": "#95B1DF"
          },
          "name": "color-text-base-subtle",
          "attributes": {
            "category": "color",
            "type": "text",
            "item": "base",
            "subitem": "subtle"
          },
          "path": [
            "color",
            "text",
            "base",
            "subtle"
          ]
        },
        "link": {
          "default": {
            "comment": "The default link color",
            "value": "hsl(0, 0%, 0%)",
            "original": {
              "comment": "The default link color",
              "value": ""
            },
            "name": "color-text-base-link-default",
            "attributes": {
              "category": "color",
              "type": "text",
              "item": "base",
              "subitem": "link",
              "state": "default"
            },
            "path": [
              "color",
              "text",
              "base",
              "link",
              "default"
            ]
          }
        }
      },
      "accent": {
        "primary": {
          "default": {
            "comment": "A primary accent color",
            "value": "hsl(207, 90%, 42%)",
            "original": {
              "comment": "A primary accent color",
              "value": "#0B75CB"
            },
            "name": "color-text-accent-primary-default",
            "attributes": {
              "category": "color",
              "type": "text",
              "item": "accent",
              "subitem": "primary",
              "state": "default"
            },
            "path": [
              "color",
              "text",
              "accent",
              "primary",
              "default"
            ]
          },
          "hover": {
            "comment": "The hover state for key components",
            "value": "hsl(207, 92%, 39%)",
            "original": {
              "comment": "The hover state for key components",
              "value": "#086DBE"
            },
            "name": "color-text-accent-primary-hover",
            "attributes": {
              "category": "color",
              "type": "text",
              "item": "accent",
              "subitem": "primary",
              "state": "hover"
            },
            "path": [
              "color",
              "text",
              "accent",
              "primary",
              "hover"
            ]
          },
          "active": {
            "comment": "The active state for key components",
            "value": "hsl(207, 92%, 39%)",
            "original": {
              "comment": "The active state for key components",
              "value": "#086DBE"
            },
            "name": "color-text-accent-primary-active",
            "attributes": {
              "category": "color",
              "type": "text",
              "item": "accent",
              "subitem": "primary",
              "state": "active"
            },
            "path": [
              "color",
              "text",
              "accent",
              "primary",
              "active"
            ]
          },
          "disabled": {
            "comment": "The disabled state for key components",
            "value": "hsl(206, 47%, 65%)",
            "original": {
              "comment": "The disabled state for key components",
              "value": "#7CABD0"
            },
            "name": "color-text-accent-primary-disabled",
            "attributes": {
              "category": "color",
              "type": "text",
              "item": "accent",
              "subitem": "primary",
              "state": "disabled"
            },
            "path": [
              "color",
              "text",
              "accent",
              "primary",
              "disabled"
            ]
          }
        },
        "destruction": {
          "default": {
            "value": "hsl(1, 100%, 74%)",
            "original": {
              "value": "#FF7B79"
            },
            "name": "color-text-accent-destruction-default",
            "attributes": {
              "category": "color",
              "type": "text",
              "item": "accent",
              "subitem": "destruction",
              "state": "default"
            },
            "path": [
              "color",
              "text",
              "accent",
              "destruction",
              "default"
            ]
          }
        },
        "creation": {
          "default": {
            "value": "hsl(125, 52%, 44%)",
            "original": {
              "value": "#36A93F"
            },
            "name": "color-text-accent-creation-default",
            "attributes": {
              "category": "color",
              "type": "text",
              "item": "accent",
              "subitem": "creation",
              "state": "default"
            },
            "path": [
              "color",
              "text",
              "accent",
              "creation",
              "default"
            ]
          },
          "hover": {
            "value": "hsl(125, 52%, 54%)",
            "original": {
              "value": "#4CC656"
            },
            "name": "color-text-accent-creation-hover",
            "attributes": {
              "category": "color",
              "type": "text",
              "item": "accent",
              "subitem": "creation",
              "state": "hover"
            },
            "path": [
              "color",
              "text",
              "accent",
              "creation",
              "hover"
            ]
          },
          "active": {
            "value": "hsl(124, 52%, 79%)",
            "original": {
              "value": "#ADE5B1"
            },
            "name": "color-text-accent-creation-active",
            "attributes": {
              "category": "color",
              "type": "text",
              "item": "accent",
              "subitem": "creation",
              "state": "active"
            },
            "path": [
              "color",
              "text",
              "accent",
              "creation",
              "active"
            ]
          },
          "disabled": {
            "value": "hsl(124, 52%, 79%)",
            "original": {
              "value": "#ADE5B1"
            },
            "name": "color-text-accent-creation-disabled",
            "attributes": {
              "category": "color",
              "type": "text",
              "item": "accent",
              "subitem": "creation",
              "state": "disabled"
            },
            "path": [
              "color",
              "text",
              "accent",
              "creation",
              "disabled"
            ]
          }
        }
      },
      "component": {
        "base": {
          "default": {
            "comment": "The text on top of color-background-component-base",
            "value": "hsl(0, 0%, 100%)",
            "original": {
              "comment": "The text on top of color-background-component-base",
              "value": "#FFFFFF"
            },
            "name": "color-text-component-base-default",
            "attributes": {
              "category": "color",
              "type": "text",
              "item": "component",
              "subitem": "base",
              "state": "default"
            },
            "path": [
              "color",
              "text",
              "component",
              "base",
              "default"
            ]
          }
        },
        "cta": {
          "default": {
            "comment": "The text on top of color-background-component-cta",
            "value": "hsl(0, 0%, 24%)",
            "original": {
              "comment": "The text on top of color-background-component-cta",
              "value": "#3E3E3E"
            },
            "name": "color-text-component-cta-default",
            "attributes": {
              "category": "color",
              "type": "text",
              "item": "component",
              "subitem": "cta",
              "state": "default"
            },
            "path": [
              "color",
              "text",
              "component",
              "cta",
              "default"
            ]
          },
          "disabled": {
            "value": "hsl(0, 0%, 52%)",
            "original": {
              "value": "#848484"
            },
            "name": "color-text-component-cta-disabled",
            "attributes": {
              "category": "color",
              "type": "text",
              "item": "component",
              "subitem": "cta",
              "state": "disabled"
            },
            "path": [
              "color",
              "text",
              "component",
              "cta",
              "disabled"
            ]
          }
        },
        "destruction": {
          "default": {
            "comment": "The text on top of color-background-component-destruction",
            "value": "hsl(0, 0%, 100%)",
            "original": {
              "comment": "The text on top of color-background-component-destruction",
              "value": "#FFFFFF"
            },
            "name": "color-text-component-destruction-default",
            "attributes": {
              "category": "color",
              "type": "text",
              "item": "component",
              "subitem": "destruction",
              "state": "default"
            },
            "path": [
              "color",
              "text",
              "component",
              "destruction",
              "default"
            ]
          }
        },
        "creation": {
          "default": {
            "comment": "The text on top of color-background-component-creation",
            "value": "hsl(0, 0%, 100%)",
            "original": {
              "comment": "The text on top of color-background-component-creation",
              "value": "#FFFFFF"
            },
            "name": "color-text-component-creation-default",
            "attributes": {
              "category": "color",
              "type": "text",
              "item": "component",
              "subitem": "creation",
              "state": "default"
            },
            "path": [
              "color",
              "text",
              "component",
              "creation",
              "default"
            ]
          }
        }
      }
    }
  },
  "spacing": {
    "0": {
      "value": "0",
      "original": {
        "value": "0"
      },
      "name": "spacing-0",
      "attributes": {
        "category": "spacing",
        "type": "0"
      },
      "path": [
        "spacing",
        "0"
      ]
    },
    "1": {
      "value": "1px",
      "original": {
        "value": "1px"
      },
      "name": "spacing-1",
      "attributes": {
        "category": "spacing",
        "type": "1"
      },
      "path": [
        "spacing",
        "1"
      ]
    },
    "2": {
      "value": ".25rem",
      "original": {
        "value": ".25rem"
      },
      "name": "spacing-2",
      "attributes": {
        "category": "spacing",
        "type": "2"
      },
      "path": [
        "spacing",
        "2"
      ]
    },
    "3": {
      "value": ".5rem",
      "original": {
        "value": ".5rem"
      },
      "name": "spacing-3",
      "attributes": {
        "category": "spacing",
        "type": "3"
      },
      "path": [
        "spacing",
        "3"
      ]
    },
    "4": {
      "value": "1rem",
      "original": {
        "value": "1rem"
      },
      "name": "spacing-4",
      "attributes": {
        "category": "spacing",
        "type": "4"
      },
      "path": [
        "spacing",
        "4"
      ]
    },
    "5": {
      "value": "1.5rem",
      "original": {
        "value": "1.5rem"
      },
      "name": "spacing-5",
      "attributes": {
        "category": "spacing",
        "type": "5"
      },
      "path": [
        "spacing",
        "5"
      ]
    },
    "6": {
      "value": "2rem",
      "original": {
        "value": "2rem"
      },
      "name": "spacing-6",
      "attributes": {
        "category": "spacing",
        "type": "6"
      },
      "path": [
        "spacing",
        "6"
      ]
    }
  }
}